%YAML 1.1
%TAG !u! tag:unity3d.com,2011:
--- !u!114 &11400000
MonoBehaviour:
  m_ObjectHideFlags: 0
  m_CorrespondingSourceObject: {fileID: 0}
  m_PrefabInstance: {fileID: 0}
  m_PrefabAsset: {fileID: 0}
  m_GameObject: {fileID: 0}
  m_Enabled: 1
  m_EditorHideFlags: 0
  m_Script: {fileID: 11500000, guid: c529bada45d90ae4ebf788f64852f45b, type: 3}
  m_Name: LevelData1
  m_EditorClassIdentifier: 
  _waves:
  - _waveEnemies:
    - {fileID: 11400000, guid: 1de9e734b6f40794a809ff41cc70e257, type: 2}
    _waveWeight: 20
    _groupWeight:
      _min: 1
      _max: 4
    _waveSpawnPeriod:
      _min: 1
      _max: 3
  - _waveEnemies:
    - {fileID: 11400000, guid: 1de9e734b6f40794a809ff41cc70e257, type: 2}
    - {fileID: 11400000, guid: a8a2d2dc9920d3e42bd95699698c687b, type: 2}
    _waveWeight: 30
    _groupWeight:
      _min: 1
      _max: 5
    _waveSpawnPeriod:
      _min: 1
      _max: 3
  - _waveEnemies:
    - {fileID: 11400000, guid: 1de9e734b6f40794a809ff41cc70e257, type: 2}
    - {fileID: 11400000, guid: a8a2d2dc9920d3e42bd95699698c687b, type: 2}
    - {fileID: 11400000, guid: a69659e8059d20b4e8ef008c48a9b4df, type: 2}
    _waveWeight: 50
    _groupWeight:
      _min: 1
      _max: 6
    _waveSpawnPeriod:
      _min: 1
      _max: 3
  _timeBetweenWaves: 5
  _summaryEnemiesWeight: 100
