%YAML 1.1
%TAG !u! tag:unity3d.com,2011:
--- !u!114 &11400000
MonoBehaviour:
  m_ObjectHideFlags: 0
  m_CorrespondingSourceObject: {fileID: 0}
  m_PrefabInstance: {fileID: 0}
  m_PrefabAsset: {fileID: 0}
  m_GameObject: {fileID: 0}
  m_Enabled: 1
  m_EditorHideFlags: 0
  m_Script: {fileID: 11500000, guid: 0c72574dce68e4740bdcfca4b56ad4f0, type: 3}
  m_Name: TapSign
  m_EditorClassIdentifier: 
  _projectilePrefab: {fileID: 5909531716049760256, guid: a79f100ad5f6be14db38ab6057285143,
    type: 3}
  _unitsPositions: []
  _unitsArea: 18
  _enemies: []
  directed: 0
  _numberOfPoints: 2
  startDirection: {x: 0, y: 1}
  offset: {x: 0, y: 0}
