%YAML 1.1
%TAG !u! tag:unity3d.com,2011:
--- !u!114 &11400000
MonoBehaviour:
  m_ObjectHideFlags: 0
  m_CorrespondingSourceObject: {fileID: 0}
  m_PrefabInstance: {fileID: 0}
  m_PrefabAsset: {fileID: 0}
  m_GameObject: {fileID: 0}
  m_Enabled: 1
  m_EditorHideFlags: 0
  m_Script: {fileID: 11500000, guid: 0c72574dce68e4740bdcfca4b56ad4f0, type: 3}
  m_Name: TestEmptySign
  m_EditorClassIdentifier: 
  _unitsPositions: []
  _unitsArea: 7
  _enemies:
  - {fileID: 3651855352069919384, guid: bcd18b66ae7e3d24786897f46eeca980, type: 3}
  directed: 1
  _numberOfPoints: 10
  startDirection: {x: 0, y: 1}
  offset: {x: 0, y: 0}
