%YAML 1.1
%TAG !u! tag:unity3d.com,2011:
--- !u!1001 &1772575851464691226
PrefabInstance:
  m_ObjectHideFlags: 0
  serializedVersion: 2
  m_Modification:
    m_TransformParent: {fileID: 0}
    m_Modifications:
    - target: {fileID: 5361538233480324260, guid: 8bdd1746651a0054b811f560603c0e78,
        type: 3}
      propertyPath: m_Name
      value: Rune Enemy A Variant
      objectReference: {fileID: 0}
    - target: {fileID: 5361538233480324262, guid: 8bdd1746651a0054b811f560603c0e78,
        type: 3}
      propertyPath: m_LocalPosition.x
      value: -0.16017212
      objectReference: {fileID: 0}
    - target: {fileID: 5361538233480324262, guid: 8bdd1746651a0054b811f560603c0e78,
        type: 3}
      propertyPath: m_LocalPosition.y
      value: 0.1
      objectReference: {fileID: 0}
    - target: {fileID: 5361538233480324262, guid: 8bdd1746651a0054b811f560603c0e78,
        type: 3}
      propertyPath: m_LocalPosition.z
      value: 28.89454
      objectReference: {fileID: 0}
    - target: {fileID: 5361538233480324262, guid: 8bdd1746651a0054b811f560603c0e78,
        type: 3}
      propertyPath: m_LocalRotation.x
      value: 0
      objectReference: {fileID: 0}
    - target: {fileID: 5361538233480324262, guid: 8bdd1746651a0054b811f560603c0e78,
        type: 3}
      propertyPath: m_LocalRotation.y
      value: 0
      objectReference: {fileID: 0}
    - target: {fileID: 5361538233480324262, guid: 8bdd1746651a0054b811f560603c0e78,
        type: 3}
      propertyPath: m_LocalRotation.z
      value: 0
      objectReference: {fileID: 0}
    - target: {fileID: 5361538233480324262, guid: 8bdd1746651a0054b811f560603c0e78,
        type: 3}
      propertyPath: m_LocalRotation.w
      value: 1
      objectReference: {fileID: 0}
    - target: {fileID: 5361538233480324262, guid: 8bdd1746651a0054b811f560603c0e78,
        type: 3}
      propertyPath: m_RootOrder
      value: 0
      objectReference: {fileID: 0}
    - target: {fileID: 5361538233480324262, guid: 8bdd1746651a0054b811f560603c0e78,
        type: 3}
      propertyPath: m_LocalEulerAnglesHint.x
      value: 0
      objectReference: {fileID: 0}
    - target: {fileID: 5361538233480324262, guid: 8bdd1746651a0054b811f560603c0e78,
        type: 3}
      propertyPath: m_LocalEulerAnglesHint.y
      value: 0
      objectReference: {fileID: 0}
    - target: {fileID: 5361538233480324262, guid: 8bdd1746651a0054b811f560603c0e78,
        type: 3}
      propertyPath: m_LocalEulerAnglesHint.z
      value: 0
      objectReference: {fileID: 0}
    - target: {fileID: 3912907302625697996, guid: 8bdd1746651a0054b811f560603c0e78,
        type: 3}
      propertyPath: sign
      value: 
      objectReference: {fileID: 11400000, guid: 0dde6982e121dd04284ae20bf6cacb97,
        type: 2}
    - target: {fileID: 3318790773845133603, guid: 8bdd1746651a0054b811f560603c0e78,
        type: 3}
      propertyPath: m_Sprite
      value: 
      objectReference: {fileID: 21300000, guid: 805df5ed50762d346879e686e8e2e059,
        type: 3}
    - target: {fileID: 509012754403641972, guid: 8bdd1746651a0054b811f560603c0e78,
        type: 3}
      propertyPath: m_Materials.Array.data[0]
      value: 
      objectReference: {fileID: 2100000, guid: a1fcb6c2178a49f48a1081a39ecaa25e, type: 2}
    m_RemovedComponents: []
  m_SourcePrefab: {fileID: 100100000, guid: 8bdd1746651a0054b811f560603c0e78, type: 3}
